## Interface: 80100
## Title: Blizzard Raid Frames - Bigger Buffs
## Notes: Tweaks to Blizzard's raid frames buffs.
## SavedVariables: biggerbuffsSaved
## LoadOnDemand: 0
## Author: scaleable @ azralon-US
Utils.lua
CooldownsData.lua
MyBiggerBuffs.lua